<?xml version="1.0" encoding="utf-8"?>
<svg version="1.1" id="OBSVG" xmlns="http://www.w3.org/2000/svg" xmlns:xlink="http://www.w3.org/1999/xlink" x="0px" y="0px"
	 viewBox="0 0 373 373" style="enable-background:new 0 0 373 373;" xml:space="preserve">
<style type="text/css">
	.st0{fill:#000000;}
</style>
<path class="st0" d="M186.5,26.5c-88.4,0-160,71.6-160,160s71.6,160,160,160s160-71.6,160-160S274.9,26.5,186.5,26.5z M186.5,303.5
	c-64.6,0-117-52.4-117-117s52.4-117,117-117s117,52.4,117,117S251.1,303.5,186.5,303.5z"/>
<rect x="-52.4" y="161.7" transform="matrix(0.7071 -0.7071 0.7071 0.7071 -77.23 186.5086)" class="st0" width="477.9" height="49.5"/>
</svg>
