<?xml version="1.0" encoding="utf-8"?>
<svg version="1.1" id="OBSVG" xmlns="http://www.w3.org/2000/svg" xmlns:xlink="http://www.w3.org/1999/xlink" x="0px" y="0px"
	 viewBox="0 0 373.7 140.9" style="enable-background:new 0 0 373.7 140.9;" xml:space="preserve">
<style type="text/css">
	.st0{fill:#A9A9A9;}
	.st1{fill:#E2E2E2;}
	.st2{fill:#FFFFFF;}
</style>
<path class="st0" d="M373.7,70.4c0,38.9-31.5,70.5-70.5,70.5H70.5c-39,0-70.5-31.5-70.5-70.5C0,31.5,31.5,0,70.5,0h232.8
	C342.2,0,373.7,31.5,373.7,70.4z"/>
<path class="st1" d="M156,70.4c0,31.9-25.9,57.8-57.8,57.8H72.4c-31.9,0-57.8-25.9-57.8-57.8s25.9-57.8,57.8-57.8h25.8
	C130.1,12.7,156,38.5,156,70.4z"/>
<rect x="224.1" y="64.9" transform="matrix(0.7071 -0.7071 0.7071 0.7071 25.6255 202.1616)" class="st2" width="65.4" height="10.5"/>
<rect x="251.6" y="37.4" transform="matrix(0.7071 -0.7071 0.7071 0.7071 25.6239 202.1655)" class="st2" width="10.5" height="65.4"/>
</svg>
