<?xml version="1.0" encoding="utf-8"?>
<svg version="1.1" id="OBSVG" xmlns="http://www.w3.org/2000/svg" xmlns:xlink="http://www.w3.org/1999/xlink" x="0px" y="0px"
	 viewBox="0 0 335.3 349.9" style="enable-background:new 0 0 335.3 349.9;" xml:space="preserve">
<style type="text/css">
	.st0{fill:#000000;}
</style>
<g>
	<path class="st0" d="M136.3,0C61,0,0,61,0,136.3c0,75.3,61,136.3,136.3,136.3s136.3-61,136.3-136.3C272.7,61,211.6,0,136.3,0z
		 M136.3,234.7c-54.3,0-98.3-44-98.3-98.3C38,82,82,38,136.3,38s98.3,44,98.3,98.3C234.7,190.6,190.6,234.7,136.3,234.7z"/>
	<path class="st0" d="M282.4,340.8l-82.6-82.6c-12.1-12.1-12.1-31.7,0-43.8l0,0c12.1-12.1,31.7-12.1,43.8,0l82.6,82.6
		c12.1,12.1,12.1,31.7,0,43.8l0,0C314.1,352.9,294.5,352.9,282.4,340.8z"/>
</g>
</svg>
