<?xml version="1.0" encoding="utf-8"?>
<svg version="1.1" id="OBSVG" xmlns="http://www.w3.org/2000/svg" xmlns:xlink="http://www.w3.org/1999/xlink" x="0px" y="0px"
	 viewBox="0 0 320 330" style="enable-background:new 0 0 320 330;" xml:space="preserve">
<style type="text/css">
	.st0{fill:none;}
	.st1{fill:#000000;}
</style>
<rect class="st0" width="320" height="330"/>
<path class="st1" d="M80,26.7c-49.6,28.8-80,81.4-80,139c0,56,30.5,108.7,78.5,137.5l16-27C56.1,252.2,32,210.5,32,165.7
	c0-46.4,24-88.1,64-110.5L80,26.7z M112,82.7c-28.8,17.6-48,49.4-48,83s17.7,63.9,46.5,81.5l16-27C107.3,209,96,188.1,96,165.7
	s12.8-43.2,32-56L112,82.7z M160,133.7c-17.7,0-32,14.3-32,32s14.3,32,32,32s32-14.3,32-32S177.7,133.7,160,133.7z"/>
<rect x="192.4" y="64.9" transform="matrix(0.7071 -0.7071 0.7071 0.7071 23.0093 207.9068)" class="st1" width="140.2" height="22.5"/>
<rect x="251.2" y="6.1" transform="matrix(0.7071 -0.7071 0.7071 0.7071 23.0059 207.9151)" class="st1" width="22.5" height="140.2"/>
</svg>
