<?xml version="1.0" encoding="utf-8"?>
<svg version="1.1" id="OBSVG" xmlns="http://www.w3.org/2000/svg" xmlns:xlink="http://www.w3.org/1999/xlink" x="0px" y="0px"
	 viewBox="0 0 384.7 207.1" style="enable-background:new 0 0 384.7 207.1;" xml:space="preserve">
<style type="text/css">
	.st0{fill:#E2E2E2;}
</style>
<polygon class="st0" points="186,74 156.2,74 156.2,193.7 117.2,193.7 117.2,74 87.3,74 135.8,10.7 "/>
<polygon class="st0" points="198,131.7 227.8,131.7 227.8,12.1 266.8,12.1 266.8,131.7 296.7,131.7 248.2,195.1 "/>
</svg>
