<?xml version="1.0" encoding="utf-8"?>
<svg version="1.1" id="OBSVG" xmlns="http://www.w3.org/2000/svg" xmlns:xlink="http://www.w3.org/1999/xlink" x="0px" y="0px"
	 viewBox="0 0 322 372.9" style="enable-background:new 0 0 322 373;" xml:space="preserve">
<style type="text/css">
	.st0{fill:#6CB23F;}
</style>
<polygon class="st0" points="322,186.4 0,0 0,373 "/>
</svg>
